“I know words. I have the best words”
…
“I know words. I have the best words”

Sentiment analysis of Donald Trump’s Twitter rhetoric

There is a lot of talk that Donald Trump uses inflammatory rhetoric and is generally not very nice. I am putting this to test in this research. I will compare negative and positive rhetoric in D. Trump’s tweets using regex (sentiment analysis). I will also delve into descriptive statistics of Donald Trump’s activity on Twitter.

This research uses a dataset of @realdonaldtrump tweets and pertinent information in 2009-2020 (up until the moment he was banned from Twitter). He was reinstated on Twitter 22 months later, but this is a story for another time. I will focus on tweets prior to the suspension.

trump <- read_csv("https://raw.githubusercontent.com/valeriia-popova/trump-tweets/main/realdonaldtrump.csv")
trump

# A tibble: 43,352 × 8
       id link  content date                retweets favorites mentions hashtags
    <dbl> <chr> <chr>   <dttm>                 <dbl>     <dbl> <chr>    <chr>   
 1 1.70e9 http… "Be su… 2009-05-04 13:54:25      510       917 <NA>     <NA>    
 2 1.70e9 http… "Donal… 2009-05-04 20:00:10       34       267 <NA>     <NA>    
 3 1.74e9 http… "Donal… 2009-05-08 08:38:08       13        19 <NA>     <NA>    
 4 1.74e9 http… "New B… 2009-05-08 15:40:15       11        26 <NA>     <NA>    
 5 1.77e9 http… "\"My … 2009-05-12 09:07:28     1375      1945 <NA>     <NA>    
 6 1.78e9 http… "Miss … 2009-05-12 14:21:55       29        28 <NA>     <NA>    
 7 1.79e9 http… "Liste… 2009-05-13 12:38:28       15        16 <NA>     <NA>    
 8 1.80e9 http… "\"Str… 2009-05-14 11:30:40       18        27 <NA>     <NA>    
 9 1.81e9 http… "Enter… 2009-05-15 09:13:13       15         9 <NA>     <NA>    
10 1.82e9 http… "\"Whe… 2009-05-16 17:22:45       19        47 <NA>     <NA>    
# ℹ 43,342 more rows

Negative rhetoric

I wrote a regex code with 5 random negative words of my choice to measure how negative Trump’s rhetoric is. I decided to observe this pattern over time - time always tells a story! Below are two alternative codes.

trump |> 
  filter(str_detect(content, regex("horribl.|terribl.|bad.*|craz.*|radical.*", 
                                   ignore_case = TRUE))) |> 
  count(date, sort = TRUE)

# A tibble: 1,973 × 2
   date                    n
   <dttm>              <int>
 1 2019-07-03 14:31:49     2
 2 2019-07-07 22:17:38     2
 3 2019-07-09 20:30:08     2
 4 2019-07-16 06:20:42     2
 5 2019-07-21 21:16:15     2
 6 2019-08-19 08:19:46     2
 7 2019-08-27 18:36:43     2
 8 2019-08-28 08:57:56     2
 9 2019-08-30 08:55:41     2
10 2019-09-09 08:01:41     2
# ℹ 1,963 more rows
…
Positive rhetoric

As a scientist (and a person!), I strive to be objective. In that spirit, I measured the opposite: how nice Trump’s rhetoric is. This time, I used regex and 5 random positive words of my choice. Below are two alternative codes.

trump |> 
  filter(str_detect(content, regex("nice.*|kind.*|generous.*|happ(y|i).*|love.*", 
                                   ignore_case = TRUE))) |> 
  count(date, sort = TRUE)

# A tibble: 2,825 × 2
   date                    n
   <dttm>              <int>
 1 2019-06-03 12:41:37     2
 2 2019-08-21 06:34:52     2
 3 2019-11-01 16:11:29     2
 4 2019-12-10 06:02:28     2
 5 2020-05-30 07:41:04     2
 6 2009-06-21 09:47:41     1
 7 2009-07-04 18:19:56     1
 8 2009-11-26 13:55:38     1
 9 2009-12-23 11:38:18     1
10 2010-03-18 13:17:47     1
# ℹ 2,815 more rows
…
